…
-   查看数据情况


```r
# 查看前10行树
head(data,10)
```

```
## # A tibble: 10 x 14
##     age   sex    cp trest~1  chol   fbs restecg thalach
##   <dbl> <dbl> <dbl>   <dbl> <dbl> <dbl>   <dbl>   <dbl>
## 1    63     1     3     145   233     1       0     150
## 2    53     1     0     140   203     1       0     155
## 3    41     0     1     130   204     0       0     172
## 4    56     1     1     120   236     0       1     178
## 5    60     1     0     130   206     0       0     132
## 6    57     1     0     140   192     0       1     148
## # ... with 4 more rows, 6 more variables: exang <dbl>,
## #   oldpeak <dbl>, slope <dbl>, ca <dbl>, thal <dbl>,
## #   target <dbl>, and abbreviated variable name
## #   1: trestbps
```
…
