…
## 数据提取

数据下好后用R读取


```r
library(haven)
library(tidyverse)
mydata <- read_xpt("data/demo_j.xpt")
head(mydata,10)
```

```
## # A tibble: 10 x 46
##    SEQN SDDSR~1 RIDST~2 RIAGE~3 RIDAG~4 RIDAG~5 RIDRE~6
##   <dbl>   <dbl>   <dbl>   <dbl>   <dbl>   <dbl>   <dbl>
## 1 93703      10       2       2       2      NA       5
## 2 93704      10       2       1       2      NA       3
## 3 93705      10       2       2      66      NA       4
## 4 93706      10       2       1      18      NA       5
## 5 93707      10       2       1      13      NA       5
## 6 93708      10       2       2      66      NA       5
## # ... with 4 more rows, 39 more variables:
## #   RIDRETH3 <dbl>, RIDEXMON <dbl>, RIDEXAGM <dbl>,
## #   DMQMILIZ <dbl>, DMQADFC <dbl>, DMDBORN4 <dbl>,
## #   DMDCITZN <dbl>, DMDYRSUS <dbl>, DMDEDUC3 <dbl>,
## #   DMDEDUC2 <dbl>, DMDMARTL <dbl>, RIDEXPRG <dbl>,
## #   SIALANG <dbl>, SIAPROXY <dbl>, SIAINTRP <dbl>,
## #   FIALANG <dbl>, FIAPROXY <dbl>, FIAINTRP <dbl>, ...
```
…
