第 7 部分 NHANES数据库介绍 | 临床预测模型
…
或者直接用nhanesA下载数据（速度可能比较慢）

library(nhanesA)
mydata1<-nhanes('DEMO_J')

7.2 数据提取

数据下好后用R读取

library(haven)
library(tidyverse)
mydata <- read_xpt("data/demo_j.xpt")
head(mydata,10)

## # A tibble: 10 × 46
##    SEQN SDDSR…¹ RIDST…² RIAGE…³ RIDAG…⁴ RIDAG…⁵ RIDRE…⁶
##   <dbl>   <dbl>   <dbl>   <dbl>   <dbl>   <dbl>   <dbl>
## 1 93703      10       2       2       2      NA       5
## 2 93704      10       2       1       2      NA       3
## 3 93705      10       2       2      66      NA       4
## 4 93706      10       2       1      18      NA       5
## 5 93707      10       2       1      13      NA       5
## 6 93708      10       2       2      66      NA       5
## # … with 4 more rows, 39 more variables:
## #   RIDRETH3 <dbl>, RIDEXMON <dbl>, RIDEXAGM <dbl>,
## #   DMQMILIZ <dbl>, DMQADFC <dbl>, DMDBORN4 <dbl>,
## #   DMDCITZN <dbl>, DMDYRSUS <dbl>, DMDEDUC3 <dbl>,
## #   DMDEDUC2 <dbl>, DMDMARTL <dbl>, RIDEXPRG <dbl>,
## #   SIALANG <dbl>, SIAPROXY <dbl>, SIAINTRP <dbl>,
## #   FIALANG <dbl>, FIAPROXY <dbl>, FIAINTRP <dbl>, …
…
