第 3 部分 R 实操 | 临床预测模型
…
3.1.2 加载数据

data <- read_csv("data/CardiovascularDataset.csv")
# dlookr 是一个自动输出一份数据诊断报告包，可以自行探索
# eda_report(data) # 输出诊断报告
# eda_report(data, target = 1) # 添加按照target的分组信息

查看数据情况

# 查看前10行树
head(data,10)

## # A tibble: 10 × 14
##     age   sex    cp trest…¹  chol   fbs restecg thalach
##   <dbl> <dbl> <dbl>   <dbl> <dbl> <dbl>   <dbl>   <dbl>
## 1    63     1     3     145   233     1       0     150
## 2    53     1     0     140   203     1       0     155
## 3    41     0     1     130   204     0       0     172
## 4    56     1     1     120   236     0       1     178
## 5    60     1     0     130   206     0       0     132
## 6    57     1     0     140   192     0       1     148
## # … with 4 more rows, 6 more variables: exang <dbl>,
## #   oldpeak <dbl>, slope <dbl>, ca <dbl>, thal <dbl>,
## #   target <dbl>, and abbreviated variable name
## #   ¹​trestbps
…
